selenium_4\ElementPosition.class
alerts\AlertTests.class
frames\FrameTests.class
selenium_4\NetworkConditions.class
selenium_4\WindowManagement.class
alerts\FileUploadTests.class
login\LoginTests.class
selenium_4\Screenshots.class
hover\HoverTests.class
javascript\JavaScriptTests.class
selenium_4\Geolocation.class
base\BaseTests.class
selenium_4\Geolocation$1.class
navigation\NavigationTests.class
selenium_4\ConsoleLogs.class
wait\WaitTests.class
selenium_4\RelativeLocators.class
keys\KeysTest.class
dropdown\DropdownTests.class
