C:\Projects\SeleniumWebdriverJava\JavaTestSelenium_TAU\src\test\java\base\BaseTests.java
C:\Projects\SeleniumWebdriverJava\JavaTestSelenium_TAU\src\test\java\alerts\FileUploadTests.java
C:\Projects\SeleniumWebdriverJava\JavaTestSelenium_TAU\src\test\java\login\LoginTests.java
C:\Projects\SeleniumWebdriverJava\JavaTestSelenium_TAU\src\test\java\selenium_4\Screenshots.java
C:\Projects\SeleniumWebdriverJava\JavaTestSelenium_TAU\src\test\java\navigation\NavigationTests.java
C:\Projects\SeleniumWebdriverJava\JavaTestSelenium_TAU\src\test\java\selenium_4\NetworkConditions.java
C:\Projects\SeleniumWebdriverJava\JavaTestSelenium_TAU\src\test\java\selenium_4\ElementPosition.java
C:\Projects\SeleniumWebdriverJava\JavaTestSelenium_TAU\src\test\java\frames\FrameTests.java
C:\Projects\SeleniumWebdriverJava\JavaTestSelenium_TAU\src\test\java\selenium_4\Geolocation.java
C:\Projects\SeleniumWebdriverJava\JavaTestSelenium_TAU\src\test\java\dropdown\DropdownTests.java
C:\Projects\SeleniumWebdriverJava\JavaTestSelenium_TAU\src\test\java\hover\HoverTests.java
C:\Projects\SeleniumWebdriverJava\JavaTestSelenium_TAU\src\test\java\selenium_4\RelativeLocators.java
C:\Projects\SeleniumWebdriverJava\JavaTestSelenium_TAU\src\test\java\keys\KeysTest.java
C:\Projects\SeleniumWebdriverJava\JavaTestSelenium_TAU\src\test\java\alerts\AlertTests.java
C:\Projects\SeleniumWebdriverJava\JavaTestSelenium_TAU\src\test\java\selenium_4\ConsoleLogs.java
C:\Projects\SeleniumWebdriverJava\JavaTestSelenium_TAU\src\test\java\selenium_4\WindowManagement.java
C:\Projects\SeleniumWebdriverJava\JavaTestSelenium_TAU\src\test\java\javascript\JavaScriptTests.java
C:\Projects\SeleniumWebdriverJava\JavaTestSelenium_TAU\src\test\java\wait\WaitTests.java
