seleniumWebdriverJava\Facebbok.class
seleniumWebdriverJava\LiveDemo.class
seleniumWebdriverJava\UpdatedDropdown.class
seleniumWebdriverJava\ActionsDemo.class
seleniumWebdriverJava\AutoSuggestive.class
seleniumWebdriverJava\e2e.class
seleniumWebdriverJava\BrokenLinks.class
seleniumWebdriverJava\WindowHandles.class
seleniumWebdriverJava\filter.class
seleniumWebdriverJava\Locators.class
seleniumWebdriverJava\Locators3.class
seleniumWebdriverJava\Streams.class
seleniumWebdriverJava\RelativeLoc.class
seleniumWebdriverJava\frameTest.class
seleniumWebdriverJava\Assignment.class
seleniumWebdriverJava\calendar.class
seleniumWebdriverJava\StaticDropDown.class
seleniumWebdriverJava\Base.class
seleniumWebdriverJava\Dropdown.class
seleniumWebdriverJava\NewWindow.class
seleniumWebdriverJava\WindowActivities.class
seleniumWebdriverJava\SLLCheck.class
seleniumWebdriverJava\scope.class
seleniumWebdriverJava\Locators2.class
seleniumWebdriverJava\JavaScriptExecutorDemo.class
